<svg xmlns="http://www.w3.org/2000/svg" width="212.002" height="51.336" viewBox="0 0 212.002 51.336">
    <defs>
        <style>
            .cls-1{fill:#27a2c7}.cls-2{fill:#db2885}.cls-3{fill:#202349}
        </style>
    </defs>
    <g id="logo-twogether" transform="translate(-103.775 -210.417)">
        <g id="Group_30" data-name="Group 30" transform="translate(239.15 210.417)">
            <path id="Path_127" d="M577.137 249.124s-5.624-4.949-9-5.85-10.574-1.9-12.6-1.172-2.25 1.4-4.276 1.4-10.35.9-11.25.225-6.75-3.068-10.125-1.871a25.149 25.149 0 0 0-9 5.471 14.8 14.8 0 0 0-3.825 10.8 79.738 79.738 0 0 0 2.25 10.122c.449 1.8-2.025 2.025-1.125 3.6s3.707 6.606 3.3 7.855c-.367 1.137-1.4 2.9.52 2.945l6.382.023c1.16.023.627-1.051.627-1.051s.207.007.386 0a3.311 3.311 0 0 0 .766-.091s.65-1.054-.7-1.728-2.737-6.6-2.512-8.629c0 0 4.95-2.25 5.4-4.722 0 0 6.524 3.6 12.6 3.6s9-1.125 9-1.125l.224 1.8s-1.076 3.733-.45 6.074c.9 3.349-1.285 4.2-.615 5.628.115.246 2.675.246 2.675.246h4.745c1.391-.175.688-1.032.688-1.032s.531.037 1 .037c1.161 0 1.284-.145 1.284-.145.326-1.543-.8-1.358-1.571-2.007s-.332-5.2-.106-7 1.574-5.622 3.825-6.747 4.273-1.8 5.4-1.575a19.016 19.016 0 0 0 2.925.225 9.506 9.506 0 0 1 3.149 1.8c1.125 1.124 4.05 2.023 6.526 2.023s2.025.45 4.5.225l2.474-.225s3.6-1 1.125-6.01c0 0 3.537-4.337.868-11.986 0 0-.193 6.975-5.143 9.675 0 0 .451-5.176-.225-5.4a27.037 27.037 0 0 0-2.7 3.15s-.225-2.249-1.124-2.7a1.688 1.688 0 0 1 0-2.7 6.2 6.2 0 0 0 1.8-2.024l-3.825 1.125s-.224-3.6-.9-4.049a4.039 4.039 0 0 0-2.025-.9c-.676 0-1.351 2.7-1.351 2.7" class="cls-1" data-name="Path 127" transform="translate(-517.001 -231.333)"/>
            <path id="Path_128" d="M627.3 210.81a2.271 2.271 0 0 1 2.016-.251c1.06.427 1.767 1.947 1.98 2.3s.778.566.884.742a6.3 6.3 0 0 1 1.415 2.086l.812 1.98v.177l-.318-.212.318.778 2.758 1.378v.142l-.708-.212-.282.212-.461-.177-.282.177a8.445 8.445 0 0 0-1.8-.424 10.726 10.726 0 0 0-1.556.424 5.379 5.379 0 0 0-.566.813c0 .06.084.159.219.2.063.02.141-.044.2-.035.163.025.156.218.156.218a.567.567 0 0 0-.089-.045c-.047-.012-.081.039-.122.046a1.093 1.093 0 0 0-.382.066c-.2.072-.379.263-.723.734-.085.117-.1 0-.24.248-.022.04-.057-.325.064-.359.186-.053.33-.534.33-.534a6.162 6.162 0 0 0-.531.557c-.15.187-.159-.023-.31.264-.032.062-.056-.311.127-.4a4.875 4.875 0 0 0 .426-.425 2.6 2.6 0 0 1-.554.329c-.115 0-.216.144-.216.144a.36.36 0 0 1 .228-.375c.387-.135.554-.417.691-.471.4-.16.8-.908.8-.908l-.176-.105s-1.2.159-1.443-.053-.8.871-.835.978a.162.162 0 0 0 .254.126c.146-.077.224.125.224.125s-.055-.034-.147.027-.18.021-.244.072c-.764.6-.638.8-.841.848-.173.037-.177.165-.177.165a.269.269 0 0 1 .092-.326 1.153 1.153 0 0 0 .317-.449c-.274.162-.44.526-.689.566-.221.037-.167.194-.188.127a.268.268 0 0 1 .148-.316 2.025 2.025 0 0 0 .453-.463c-.186.134-.341.356-.611.366-.065 0-.086.153-.086.153-.066-.106.043-.317.132-.351.417-.158.453-.392.719-.529a2.362 2.362 0 0 0 .778-1.085 1.3 1.3 0 0 1-.365-.655s-1.061-1.987-.813-2.814a2.68 2.68 0 0 1-.213-2.7c.637-1.767-.565-1.961-.565-1.961a5.213 5.213 0 0 1-1.45-.723 1.394 1.394 0 0 1 1.45-.214" class="cls-2" data-name="Path 128" transform="translate(-590.193 -210.417)"/>
        </g>
        <g id="Group_33" data-name="Group 33" transform="translate(103.776 226.224)">
            <g id="Group_31" data-name="Group 31" transform="translate(0 2.372)">
                <path id="Path_129" d="M112.271 285.3H109.9a14.355 14.355 0 0 1-3.032-.263 3.852 3.852 0 0 1-1.875-.923 3.5 3.5 0 0 1-.952-1.773 12.316 12.316 0 0 1-.264-2.782v-13.037l3.808-.616v4.16h5.478l-.615 3.135h-4.863v6.151a8.132 8.132 0 0 0 .1 1.435 1.725 1.725 0 0 0 .38.864 1.4 1.4 0 0 0 .791.41 6.8 6.8 0 0 0 1.3.1h2.725z" class="cls-3" data-name="Path 129" transform="translate(-103.776 -265.906)"/>
            </g>
            <path id="Path_130" d="M148.955 289.912l2.783-11.307h3.632l-4.511 15.232h-3.808l-2.666-10.637-2.695 10.633h-3.867l-4.452-15.232h3.837l2.637 11.248 2.9-11.248h3.455z" class="cls-3" data-name="Path 130" transform="translate(-123.676 -272.073)"/>
            <g id="Group_32" data-name="Group 32" transform="translate(31.372)">
                <path id="Path_131" d="M210.231 284.409a13.143 13.143 0 0 0-.147-2.182 2.7 2.7 0 0 0-.513-1.274 1.786 1.786 0 0 0-1.025-.585 8.131 8.131 0 0 0-1.714-.147 8.348 8.348 0 0 0-1.728.147 1.8 1.8 0 0 0-1.04.585 2.7 2.7 0 0 0-.512 1.274 13.082 13.082 0 0 0-.146 2.182v1.728a12.808 12.808 0 0 0 .146 2.168 2.674 2.674 0 0 0 .512 1.259 1.8 1.8 0 0 0 1.04.586 8.356 8.356 0 0 0 1.728.146 8.139 8.139 0 0 0 1.714-.146 1.786 1.786 0 0 0 1.025-.586 2.675 2.675 0 0 0 .513-1.259 12.867 12.867 0 0 0 .147-2.168zm-3.4-7.235a13.65 13.65 0 0 1 3.339.352 4.993 4.993 0 0 1 2.256 1.186 4.8 4.8 0 0 1 1.275 2.241 13.224 13.224 0 0 1 .395 3.515v1.582a13.224 13.224 0 0 1-.395 3.515 4.8 4.8 0 0 1-1.275 2.241 4.991 4.991 0 0 1-2.256 1.187 16.159 16.159 0 0 1-6.707 0 4.993 4.993 0 0 1-2.256-1.187 4.807 4.807 0 0 1-1.274-2.241 13.194 13.194 0 0 1-.4-3.515v-1.582a13.2 13.2 0 0 1 .4-3.515 4.809 4.809 0 0 1 1.274-2.241 5 5 0 0 1 2.256-1.186 13.787 13.787 0 0 1 3.368-.352" class="cls-3" data-name="Path 131" transform="translate(-199.539 -271.111)"/>
                <path id="Path_132" d="M255.326 289.243a7.216 7.216 0 0 0 1.7-.161 2.153 2.153 0 0 0 1.025-.542 1.964 1.964 0 0 0 .512-1.026 8.417 8.417 0 0 0 .132-1.641v-1.435a20.535 20.535 0 0 0-.088-2.109 2.593 2.593 0 0 0-.439-1.289 1.8 1.8 0 0 0-1.025-.645 9.466 9.466 0 0 0-3.633 0 1.8 1.8 0 0 0-1.025.645 2.574 2.574 0 0 0-.439 1.289 20.417 20.417 0 0 0-.088 2.109v.586a17.49 17.49 0 0 0 .1 2.108 2.776 2.776 0 0 0 .439 1.289 1.725 1.725 0 0 0 1.011.644 7.458 7.458 0 0 0 1.817.176m3.368 1.992a4.664 4.664 0 0 1-1.493.767 8.141 8.141 0 0 1-2.431.293 9.859 9.859 0 0 1-3.178-.439 4.662 4.662 0 0 1-2.051-1.333 5.326 5.326 0 0 1-1.113-2.241 13 13 0 0 1-.337-3.134v-.82a13.694 13.694 0 0 1 .308-3.061 4.93 4.93 0 0 1 1.128-2.241 5.109 5.109 0 0 1 2.212-1.377 13.715 13.715 0 0 1 7.162.015 5.25 5.25 0 0 1 2.211 1.362 4.663 4.663 0 0 1 1.1 2.124 12.123 12.123 0 0 1 .293 2.768v7.557a10.115 10.115 0 0 1-.4 3.018 4.51 4.51 0 0 1-1.274 2.05 5.365 5.365 0 0 1-2.256 1.157 13.156 13.156 0 0 1-3.339.367h-2.373q-.644 0-1.42-.015t-1.828-.05l.615-3.046q.82.029 1.479.044t1.23.014h2.124a7.5 7.5 0 0 0 1.685-.161 2.49 2.49 0 0 0 1.128-.556 2.209 2.209 0 0 0 .63-1.1 6.824 6.824 0 0 0 .191-1.758z" class="cls-3" data-name="Path 132" transform="translate(-232.185 -271.111)"/>
                <path id="Path_133" d="M302.721 280.044a6.57 6.57 0 0 0-1.612.161 1.808 1.808 0 0 0-.966.586 2.349 2.349 0 0 0-.469 1.142 11.656 11.656 0 0 0-.117 1.83h6.3v-.674a6.028 6.028 0 0 0-.146-1.435 1.971 1.971 0 0 0-.5-.937 2.079 2.079 0 0 0-.967-.513 6.121 6.121 0 0 0-1.522-.161m-3.164 6.5a10.357 10.357 0 0 0 .117 1.728 1.772 1.772 0 0 0 1.494 1.582 7.908 7.908 0 0 0 1.7.147h2.344q1.318 0 3.252-.058l-.586 2.929q-.821.029-1.465.044t-1.245.015h-2.476a10.573 10.573 0 0 1-3.427-.469 4.624 4.624 0 0 1-3.208-3.5 12.476 12.476 0 0 1-.307-2.914v-1.641a13.423 13.423 0 0 1 .322-3.105 5.238 5.238 0 0 1 1.128-2.27 4.929 4.929 0 0 1 2.168-1.392 10.736 10.736 0 0 1 3.441-.468 10.3 10.3 0 0 1 3.208.425 5.234 5.234 0 0 1 2.05 1.187 4.248 4.248 0 0 1 1.1 1.8 7.633 7.633 0 0 1 .323 2.27v.5a9.194 9.194 0 0 1-.118 1.626 2.211 2.211 0 0 1-.4.981 1.332 1.332 0 0 1-.718.469 4.284 4.284 0 0 1-1.084.117z" class="cls-3" data-name="Path 133" transform="translate(-264.23 -271.11)"/>
                <path id="Path_134" d="M348.95 285.3h-2.373a14.359 14.359 0 0 1-3.032-.263 3.853 3.853 0 0 1-1.874-.923 3.5 3.5 0 0 1-.953-1.773 12.337 12.337 0 0 1-.263-2.782v-13.037l3.808-.616v4.16h5.478l-.615 3.135h-4.863v6.151a8.143 8.143 0 0 0 .1 1.435 1.727 1.727 0 0 0 .38.864 1.4 1.4 0 0 0 .791.41 6.8 6.8 0 0 0 1.3.1h2.725z" class="cls-3" data-name="Path 134" transform="translate(-294.29 -263.534)"/>
                <path id="Path_135" d="M371.571 280.43v-21.764h3.808v7.264a4.441 4.441 0 0 1 1.465-.835 8 8 0 0 1 2.725-.366 7.227 7.227 0 0 1 4.321 1.156 4.473 4.473 0 0 1 1.6 3.882v10.663h-3.808v-9.9a6.859 6.859 0 0 0-.088-1.172 1.623 1.623 0 0 0-.4-.834 1.838 1.838 0 0 0-.893-.5 6.212 6.212 0 0 0-1.582-.161 6.525 6.525 0 0 0-1.669.176 2.1 2.1 0 0 0-1.011.571 2.226 2.226 0 0 0-.512 1.055 7.425 7.425 0 0 0-.147 1.6v9.169z" class="cls-3" data-name="Path 135" transform="translate(-315.213 -258.666)"/>
                <path id="Path_136" d="M424.234 280.044a6.568 6.568 0 0 0-1.611.161 1.809 1.809 0 0 0-.966.586 2.35 2.35 0 0 0-.468 1.142 11.654 11.654 0 0 0-.118 1.83h6.3v-.674a6.027 6.027 0 0 0-.147-1.435 1.966 1.966 0 0 0-.5-.937 2.077 2.077 0 0 0-.967-.513 6.123 6.123 0 0 0-1.523-.161m-3.164 6.5a10.355 10.355 0 0 0 .118 1.728 1.772 1.772 0 0 0 1.494 1.582 7.911 7.911 0 0 0 1.7.147h2.343q1.318 0 3.252-.058l-.586 2.929q-.821.029-1.465.044t-1.245.015H424.2a10.574 10.574 0 0 1-3.427-.469 4.623 4.623 0 0 1-3.208-3.5 12.474 12.474 0 0 1-.307-2.914v-1.641a13.443 13.443 0 0 1 .322-3.105 5.235 5.235 0 0 1 1.129-2.27 4.929 4.929 0 0 1 2.168-1.392 10.735 10.735 0 0 1 3.441-.468 10.293 10.293 0 0 1 3.208.425 5.232 5.232 0 0 1 2.05 1.187 4.245 4.245 0 0 1 1.1 1.8 7.633 7.633 0 0 1 .323 2.27v.5a9.2 9.2 0 0 1-.118 1.626 2.2 2.2 0 0 1-.4.981 1.332 1.332 0 0 1-.717.469 4.287 4.287 0 0 1-1.084.117z" class="cls-3" data-name="Path 136" transform="translate(-345.935 -271.11)"/>
                <path id="Path_137" d="M465.777 293.716h-3.808V283.7a6.6 6.6 0 0 1 .409-2.475 3.845 3.845 0 0 1 1.2-1.626 5.06 5.06 0 0 1 1.933-.893 11.06 11.06 0 0 1 2.607-.279h1.9q.792 0 1.553.029l-.615 3.164q-.586-.029-1.289-.044t-1.172-.014a4.83 4.83 0 0 0-1.466.175 1.829 1.829 0 0 0-.82.513 1.607 1.607 0 0 0-.366.849 8.737 8.737 0 0 0-.073 1.215z" class="cls-3" data-name="Path 137" transform="translate(-375.996 -271.952)"/>
            </g>
        </g>
    </g>
</svg>
